<?xml version="1.0" standalone="no"?>
<!DOCTYPE svg PUBLIC "-//W3C//DTD SVG 1.1//EN" "http://www.w3.org/Graphics/SVG/1.1/DTD/svg11.dtd" >
<svg xmlns="http://www.w3.org/2000/svg">
<metadata>Generated by IcoMoon</metadata>
<defs>
<font id="icomoon" horiz-adv-x="1024">
<font-face units-per-em="1024" ascent="960" descent="-64" />
<missing-glyph horiz-adv-x="1024" />
<glyph unicode="&#x20;" horiz-adv-x="512" d="" />
<glyph unicode="&#xe900;" glyph-name="icon_envelop" horiz-adv-x="1485" d="M1356.8 960h-1228.8c-69.844-2.069-125.931-58.156-127.995-127.806l-0.005-0.194v-768c0-70.692 57.308-128 128-128v0h1228.8c70.692 0 128 57.308 128 128v0 768c-2.71 69.575-58.425 125.29-127.748 127.992l-0.252 0.008zM1356.8 857.6c6.41-0.013 12.25-2.44 16.662-6.42l-0.022 0.020-584.96-439.040-5.12-4.48c-12.139-4.91-26.217-7.759-40.96-7.759s-28.821 2.849-41.714 8.026l0.754-0.267-5.76 4.48-584.32 439.040c4.39 3.96 10.23 6.387 16.637 6.4h0.003zM1356.8 38.4h-1228.8c-14.138 0-25.6 11.462-25.6 25.6v0 665.6l530.56-397.44c27.969-21.298 63.394-34.122 101.815-34.122 2.907 0 5.797 0.073 8.668 0.219l-0.403-0.016c2.287-0.111 4.968-0.174 7.663-0.174 38.404 0 73.816 12.813 102.193 34.397l-0.416-0.303 529.92 397.44v-665.6c0-14.138-11.462-25.6-25.6-25.6v0z" />
<glyph unicode="&#xe901;" glyph-name="icon_fire" horiz-adv-x="744" d="M417.589 551.489c0.126-4.833 0.198-10.523 0.198-16.23 0-44.513-4.368-88.005-12.698-130.072l0.699 4.231c-12.29-62.926-30.659-118.701-55.005-171.138l1.898 4.556c-4.539-9.986-10.894-17.248-22.695-15.887s-16.34 7.262-18.61 21.787c-5.226 40.173-19.072 76.304-39.631 107.634l0.596-0.968-8.624 11.801-3.177-7.716-45.39-114.383c-10.582-26.488-18.273-57.229-21.656-89.254l-0.131-1.527c-0.478-4.749-0.751-10.264-0.751-15.843 0-41.931 15.408-80.263 40.871-109.642l-0.177 0.209c12.047-14.233 24.359-27.119 37.396-39.234l0.278-0.255c9.532-9.532 12.709-19.064 7.716-27.688-3.591-6.615-10.485-11.031-18.411-11.031-3.559 0-6.911 0.891-9.843 2.461l0.112-0.055c-90.432 27.991-163.587 88.89-206.967 168.373l-0.92 1.84c-19.611 39.093-31.092 85.184-31.092 133.957 0 4.131 0.082 8.242 0.246 12.333l-0.019-0.587c3.183 81.496 25.854 157.052 63.446 223l-1.262-2.404c34.043 65.816 70.809 129.816 107.574 195.177 38.429 68.374 69.642 147.541 89.518 231.102l1.262 6.288c0 2.723 0 5.901 0 8.624 1.606 9.815 10.025 17.213 20.171 17.213 5.582 0 10.641-2.239 14.328-5.868l-0.003 0.003c12.709-10.894 24.965-22.695 36.766-34.043 76.599-71.041 147.355-145.104 213.45-223.237l3.061-3.713c48.464-55.885 90.305-119.507 123.093-188.276l2.183-5.086c22.571-48.15 38.61-104.037 45.169-162.788l0.221-2.432c2.206-15.573 3.466-33.561 3.466-51.843 0-31.523-3.745-62.171-10.815-91.523l0.54 2.657c-23.326-97.605-90.76-175.794-179.545-213.481l-2.015-0.76c-17.816-7.123-39.509-13.834-61.819-18.925l-3.089-0.593c-1.872-0.61-4.026-0.961-6.262-0.961-11.531 0-20.879 9.348-20.879 20.879 0 7.464 3.916 14.013 9.806 17.705l0.087 0.051c69.998 55.859 114.459 141.165 114.459 236.856 0 32.113-5.007 63.057-14.284 92.093l0.591-2.141c-25.676 92.429-72.952 171.741-136.181 235.132l0.011-0.011zM303.66 889.645c-2.27-9.532-4.085-16.794-6.355-24.057-27.302-89.793-61.228-167.543-102.842-240.332l2.984 5.665c-32.227-58.553-64.908-117.106-95.773-176.567-24.975-46.148-42.084-100.152-47.961-157.484l-0.152-1.835c-1.6-10.856-2.513-23.389-2.513-36.134 0-91.044 46.617-171.199 117.284-217.899l0.974-0.605 10.44-5.901c-2.209 3.719-4.487 8.191-6.495 12.808l-0.313 0.809c-7.59 17.187-14.446 37.63-19.471 58.781l-0.5 2.495c-1.151 9.571-1.807 20.655-1.807 31.893 0 37.553 7.332 73.393 20.642 106.167l-0.679-1.89c19.518 54.468 39.489 108.936 59.461 163.404 1.887 10.011 10.562 17.482 20.983 17.482 6.488 0 12.3-2.897 16.213-7.467l0.024-0.029c20.036-17.496 36.713-38.227 49.35-61.474l0.579-1.165c6.355-12.709 12.709-25.418 19.064-39.489 17.401 46.818 30.217 101.266 36.069 157.783l0.243 2.898c2.343 18.396 3.68 39.68 3.68 61.277s-1.337 42.88-3.933 63.774l0.253-2.497c-0.567 1.869-0.894 4.017-0.894 6.241 0 8.457 4.72 15.812 11.67 19.573l0.118 0.058c2.764 1.325 6.008 2.099 9.433 2.099 7.256 0 13.701-3.475 17.761-8.852l0.041-0.056c37.969-35.47 72.109-74.074 102.342-115.7l1.601-2.314c38.47-51.596 68.289-112.216 85.85-177.848l0.845-3.712c7.573-27.689 11.924-59.481 11.924-92.29 0-66.237-17.735-128.331-48.714-181.794l0.932 1.743c-4.993-9.078-10.44-17.248-16.34-26.326h3.177l7.716 4.539c67.192 41.368 114.527 109.45 127.339 189.079l0.207 1.56c2.451 17.718 3.85 38.191 3.85 58.991 0 67.25-14.625 131.085-40.869 188.496l1.161-2.835c-30.278 69.443-67.718 129.292-112.585 182.692l0.926-1.132c-67.453 81.049-136.906 154.097-210.857 222.344l-1.568 1.43zM469.333-64c-0.126-0.002-0.275-0.003-0.424-0.003-12.697 0-23.629 7.556-28.546 18.416l-0.080 0.197c-1.796 3.889-2.844 8.44-2.844 13.236 0 11.068 5.58 20.833 14.080 26.636l0.111 0.072c96.227 79.433 128 181.56 97.135 317.73-22.956 83.141-64.66 154.682-120.43 212.579l0.147-0.153c-0.45-41.379-4.725-81.476-12.488-120.314l0.686 4.115c-12.284-63.91-30.822-120.617-55.474-173.916l1.913 4.611c-4.508-12.717-16.432-21.661-30.446-21.661-17.275 0-31.376 13.593-32.19 30.666l-0.003 0.073c-5.034 36-17.215 68.365-35.092 96.787l0.595-1.014-6.355-16.34-32.681-86.241c-10.247-25.266-17.766-54.597-21.194-85.165l-0.139-1.53c-0.436-4.377-0.684-9.46-0.684-14.602 0-39.316 14.531-75.238 38.515-102.688l-0.157 0.183c9.305-11.162 18.801-21.233 28.871-30.699l0.178-0.166 6.355-6.355c9.475-5.633 15.726-15.817 15.726-27.461 0-17.584-14.255-31.839-31.839-31.839-5.94 0-11.501 1.627-16.26 4.459l0.146-0.081c-92.805 28.319-168.087 90.165-213.297 171.096l-0.944 1.84c-20.473 40.528-32.464 88.345-32.464 138.962 0 4.286 0.086 8.552 0.256 12.796l-0.019-0.609c3 83.803 26.198 161.576 64.837 229.412l-1.291-2.461c19.064 36.312 38.582 72.17 58.553 107.574s32.227 58.099 47.66 87.603c37.51 67.070 67.952 144.737 87.286 226.694l1.225 6.157c0 3.177 0 6.355 2.27 9.532 2.416 12.068 10.865 21.72 22.002 25.796l0.24 0.077c2.292 0.566 4.922 0.89 7.629 0.89 9.28 0 17.669-3.815 23.684-9.962l0.006-0.006c9.986-8.624 19.518-17.248 29.050-26.326l8.17-9.986c77.018-71.084 148.067-145.153 214.422-223.33l2.996-3.62c49.178-57.008 91.509-122 124.456-192.268l2.182-5.179c22.717-49.251 38.774-106.402 45.181-166.438l0.209-2.413c2.216-15.822 3.48-34.1 3.48-52.674 0-32.682-3.916-64.449-11.305-94.858l0.562 2.738c-24.928-100.232-94.939-180.247-186.721-218.458l-2.102-0.776c-14.719-6.077-32.46-11.695-50.746-15.885l-2.361-0.455-13.617-3.631zM405.787 577.816l21.787-19.064 4.085-3.631c64.633-64.654 112.886-145.685 138-236.334l0.894-3.78c8.841-27.673 13.937-59.504 13.937-92.525 0-99.16-45.949-187.587-117.717-245.152l-0.617-0.479c-8.17-6.809-5.901-10.894-5.447-12.709 1.519-3.37 4.848-5.674 8.716-5.674 1.275 0 2.491 0.25 3.603 0.704l-0.064-0.023 14.071 3.631c19.242 4.255 35.778 9.408 51.704 15.764l-2.229-0.785c87.367 37.425 152.211 112.871 174.339 204.945l0.413 2.033c6.383 26.052 10.044 55.962 10.044 86.726 0 17.434-1.176 34.593-3.452 51.402l0.217-1.958c-6.986 60.082-23.003 114.856-46.756 165.266l1.366-3.224c-34.259 73.367-75.523 136.564-124.346 193.047l0.885-1.047c-68.203 81.319-137.931 154.786-211.876 223.79l-1.457 1.345-8.624 8.17c-9.532 6.355-18.156 17.248-28.142 25.418-1.988 2.085-4.787 3.381-7.889 3.381-0.742 0-1.467-0.074-2.167-0.216l0.070 0.012c-3.809-1.771-6.555-5.268-7.252-9.458l-0.010-0.074c0-2.723 0-5.447 0-7.716-20.929-90.824-52.169-170.938-93.201-244.867l2.421 4.753c-15.887-29.504-31.773-58.553-48.113-87.603s-39.489-71.262-58.099-107.121c-36.020-62.003-58.657-135.809-62.149-214.592l-0.036-1.011c-0.146-3.446-0.229-7.489-0.229-11.551 0-47.047 11.149-91.491 30.95-130.832l-0.764 1.674c42.88-78.488 113.885-137.080 199.147-162.786l2.385-0.618c10.44-3.631 13.163 0 14.525 3.631s0 8.17-5.901 14.071l-6.355 5.901c-11.378 10.734-21.916 21.99-31.725 33.87l-0.502 0.626c-27.032 31.038-43.512 71.884-43.512 116.579 0 6.1 0.307 12.128 0.906 18.070l-0.061-0.748c3.965 33.676 11.95 64.363 23.556 93.203l-0.861-2.423 33.589 86.695 22.241 54.014 14.979-19.972 5.901-8.17c20.969-31.369 35.723-68.664 41.585-108.845l0.174-1.453c0-11.348 4.539-11.801 8.624-12.255s6.809 0 11.348 9.532c22.098 47.108 40.156 101.975 51.445 159.273l0.753 4.585c7.367 36.885 11.583 79.289 11.583 122.678 0 6.181-0.086 12.342-0.256 18.482l0.020-0.905zM207.433 6.809l-44.028 24.965c-74.863 49.346-123.587 133.046-123.587 228.127 0 12.71 0.871 25.217 2.556 37.463l-0.16-1.42c5.763 61.088 23.070 116.991 49.731 167.165l-1.163-2.399c22.695 45.39 45.39 90.78 71.262 131.631l24.965 45.39c38.373 66.221 72.126 142.894 97.227 223.386l2.177 8.104c0 4.539 2.723 9.532 3.631 14.979l6.809 27.234 39.035-36.766c75.726-70.517 145.49-144.595 210.181-223.014l3.153-3.936c44.382-52.285 82.253-112.117 111.139-176.84l1.882-4.72c25.134-55.053 39.786-119.411 39.786-187.19 0-23.477-1.758-46.544-5.149-69.076l0.314 2.536c-13.238-84.546-62.511-155.472-131.312-197.655l-1.227-0.7-8.624-4.993h-3.177l-21.787 3.631 12.709 23.603 10.44 16.794c29.398 50.456 46.752 111.060 46.752 175.716 0 30.94-3.974 60.951-11.439 89.552l0.545-2.46c-17.863 68.131-47.078 127.714-85.855 179.752l0.976-1.369c-31.375 43.46-65.072 81.622-102.129 116.234l-0.453 0.419c-7.716 7.262-10.894 6.809-14.071 4.993s-6.355-3.177-4.993-14.071c2.385-18.804 3.746-40.562 3.746-62.638s-1.361-43.833-4.003-65.194l0.258 2.556c-6.266-60.436-19.399-115.797-38.754-168.142l1.534 4.738-9.078-25.418-16.34 36.766-12.255 24.965c-11.869 23.629-27.067 43.756-45.263 60.706l-0.127 0.117c-2.505 2.803-6.131 4.558-10.167 4.558-0.256 0-0.51-0.007-0.762-0.021l0.035 0.002c-3.177 0-5.901-4.539-8.17-9.986l-23.603-64.454c-12.255-33.135-24.057-65.816-35.858-98.95-12.387-29.824-19.582-64.465-19.582-100.786 0-11.19 0.683-22.221 2.009-33.053l-0.13 1.3c3.151-15.532 7.538-29.202 13.226-42.172l-0.516 1.321c2.27-5.901 4.539-12.255 6.809-18.61 0.882-2.323 1.798-4.267 2.841-6.13l-0.118 0.229zM392.17 642.27c10.261-0.659 19.34-5.234 25.851-12.232l0.022-0.024c38.494-37.060 73.123-77.597 103.561-121.272l1.744-2.643c39.403-52.867 69.867-115.025 87.664-182.332l0.847-3.767c7.639-28.302 12.026-60.795 12.026-94.314 0-63.402-15.7-123.137-43.424-175.53l0.986 2.043c49.541 39.673 83.837 96.588 93.778 161.523l0.18 1.427c2.878 18.864 4.522 40.628 4.522 62.776 0 64.718-14.036 126.157-39.229 181.441l1.119-2.741c-29.756 68.066-66.586 126.72-110.727 179.002l0.883-1.073c-67.207 80.907-136.365 153.805-210.001 221.932l-1.517 1.387-10.44 11.348v-5.901c-28.099-91.003-62.928-169.777-105.58-243.457l2.998 5.613-25.872-45.39c-22.695-42.667-45.39-87.149-69.901-131.177-23.818-45.040-39.99-97.708-45.262-153.549l-0.129-1.686c-1.499-10.211-2.354-21.998-2.354-33.986 0-77.935 36.172-147.421 92.644-192.585l0.491-0.379c-5.087 11.81-9.331 25.657-12.056 40.041l-0.199 1.264c-1.32 10.402-2.074 22.437-2.074 34.649 0 39.203 7.766 76.593 21.843 110.715l-0.705-1.93c11.801 33.135 24.057 66.27 35.858 99.404l20.879 64.454c3.471 11.62 12.437 20.586 23.806 23.992l0.251 0.064c2.053 0.434 4.412 0.683 6.829 0.683 9.804 0 18.652-4.089 24.932-10.656l0.012-0.013c21.028-18.773 38.485-41.010 51.585-65.899l0.613-1.279 7.262-14.525c12.576 37.961 22.175 82.45 26.994 128.362l0.24 2.815c2.228 17.713 3.499 38.212 3.499 59.007s-1.271 41.294-3.74 61.422l0.241-2.414c-0.618 2.375-0.972 5.102-0.972 7.912 0 12.782 7.339 23.851 18.032 29.222l0.188 0.086c3.33 2.526 7.29 4.416 11.594 5.407l0.208 0.040z" />
<glyph unicode="&#xe902;" glyph-name="icon_note" horiz-adv-x="812" d="M810.051 253.826v635.652c0 48.603-37.644 70.522-86.247 70.522h-635.652c-48.603 0-88.153-21.919-88.153-70.522v-847.695c-0.011-0.559-0.017-1.219-0.017-1.88 0-52.107 37.845-95.375 87.548-103.816l0.621-0.087h370.718c11.913 0 22.396 17.154 22.396 17.154l317.826 269.223c6.461 8.716 10.503 19.569 10.956 31.343l0.003 0.106zM70.522 41.783v847.695h670.913v-619.451h-229.673c-47.65 0-88.153-21.919-88.153-70.522v-192.506h-333.55c-11.436 0-19.537 25.255-19.537 34.785zM494.131 64.179v136.756h184.882zM458.87 536.391h-211.566c-19.474 0-35.261 15.787-35.261 35.261s15.787 35.261 35.261 35.261h211.566c19.474 0 35.261-15.787 35.261-35.261s-15.787-35.261-35.261-35.261v0zM458.87 695.066h-211.566c-19.474 0-35.261 15.787-35.261 35.261s15.787 35.261 35.261 35.261h211.566c19.474 0 35.261-15.787 35.261-35.261s-15.787-35.261-35.261-35.261v0zM458.87 377.24h-211.566c-19.474 0-35.261 15.787-35.261 35.261s15.787 35.261 35.261 35.261h211.566c19.474 0 35.261-15.787 35.261-35.261s-15.787-35.261-35.261-35.261v0z" />
<glyph unicode="&#xe903;" glyph-name="icon_pencil" horiz-adv-x="1033" d="M1017.979 692.586l-250.857 250.857c-9.093 9.166-21.695 14.841-35.622 14.841s-26.528-5.674-35.618-14.837l-0.003-0.003-649.219-635.673c-7.892-7.823-13.198-18.243-14.528-29.872l-0.022-0.231-32.11-285.476c-0.231-1.808-0.363-3.9-0.363-6.022 0-27.709 22.463-50.171 50.171-50.171 0.128 0 0.255 0 0.382 0.001h4.997l290.493 29.099c12.046 1.233 22.66 6.561 30.602 14.547l641.695 641.695c9.166 9.093 14.841 21.695 14.841 35.622s-5.674 26.528-14.837 35.618l-0.003 0.003zM55.69 37.346l22.577 200.686 226.273-226.273-200.686-20.069zM199.181 187.861l628.649 621.625 57.697-57.697-628.649-621.625zM729.493 909.829l62.714-62.714-628.649-623.632-63.216 64.22zM356.719 30.824l-64.22 63.718 628.649 623.632 61.209-59.202z" />
<glyph unicode="&#xe904;" glyph-name="icon_plus" d="M579.105-64h-134.209c-0.389-0.006-0.848-0.009-1.307-0.009-52.463 0-94.992 42.53-94.992 94.992 0 0.003 0 0.006 0 0.009v0 225.28c0 16.365-13.266 29.631-29.631 29.631v0h-223.973c-52.463 0-94.992 42.53-94.992 94.992v0 134.209c-0.006 0.389-0.009 0.848-0.009 1.307 0 52.463 42.53 94.992 94.992 94.992 0.003 0 0.006 0 0.009 0h225.28c15.359 0.685 27.639 12.964 28.321 28.26l0.002 0.063v225.28c0 0.003 0 0.006 0 0.009 0 52.463 42.53 94.992 94.992 94.992 0.46 0 0.919-0.003 1.377-0.010l-0.069 0.001h134.209c52.463 0 94.992-42.53 94.992-94.992v-225.28c0-16.365 13.266-29.631 29.631-29.631v0h225.28c52.463 0 94.992-42.53 94.992-94.992v0-134.209c0-52.463-42.53-94.992-94.992-94.992v0h-225.28c-16.365 0-29.631-13.266-29.631-29.631v0-225.28c0-52.463-42.53-94.992-94.992-94.992v0zM94.992 544.735c-16.365 0-29.631-13.266-29.631-29.631v0-134.209c0-16.365 13.266-29.631 29.631-29.631v0h225.28c52.463 0 94.992-42.53 94.992-94.992v0-225.28c0-16.365 13.266-29.631 29.631-29.631v0h134.209c16.365 0 29.631 13.266 29.631 29.631v0 225.28c0.737 51.898 42.98 93.685 94.983 93.685 0.003 0 0.006 0 0.009 0h225.28c16.365 0 29.631 13.266 29.631 29.631v0 135.517c0 16.365-13.266 29.631-29.631 29.631v0h-225.28c-51.898 0.737-93.685 42.98-93.685 94.983 0 0.003 0 0.006 0 0.009v0 225.28c0 16.365-13.266 29.631-29.631 29.631v0h-135.517c-16.365 0-29.631-13.266-29.631-29.631v0-225.28c0-52.463-42.53-94.992-94.992-94.992v0z" />
<glyph unicode="&#xe905;" glyph-name="icon_yen" horiz-adv-x="1655" d="M1654.992-64h-1654.992v938.616h383.319v-90.834h-292.485v-756.949h1473.325v756.949h-307.624v90.834h398.458v-938.616zM746.654 402.886v105.973h-196.807v76.3h168.345l-246.462 374.841h133.829l202.257-340.93 197.412 340.93h127.773l-242.224-374.841h163.501v-76.3h-196.201v-105.973h197.412v-76.3h-197.412v-187.723h-111.423v187.723h-196.807v76.3z" />
</font></defs></svg>